INDEX VERSION 1.131+/home/provector/DQN-Java-workspace/.metadata/.plugins/org.eclipse.jdt.core
718807614.index
2772667895.index
527948738.index
2982035129.index
3551222043.index
3703823618.index
742522455.index
2771403403.index
1814935912.index
2346517408.index
3885805113.index
136565946.index
1230326594.index
3863728922.index
2142687602.index
2841451250.index
46282419.index
639077116.index
1913109094.index
148494371.index
1932949083.index
3657881416.index
3721837726.index
3888198363.index
2630498905.index
1279012638.index
3701690810.index
2066489604.index
2329149954.index
3895180559.index
19925181.index
4076319705.index
1014140582.index
3214207201.index
3301523422.index
527624335.index
2233963263.index
2401959233.index
3672024468.index
4197008200.index
120211678.index
